GPU time: 0.10367
Max color: 282
--------------------------
GPU time: 0.102662
Max color: 282
--------------------------
GPU time: 0.101228
Max color: 282
--------------------------
GPU time: 0.104227
Max color: 282
--------------------------
GPU time: 0.103542
Max color: 282
--------------------------
