GPU time: 0.211856
Max color: 288
--------------------------
GPU time: 0.161716
Max color: 279
--------------------------
GPU time: 0.193421
Max color: 287
--------------------------
GPU time: 0.144262
Max color: 289
--------------------------
GPU time: 0.198858
Max color: 278
--------------------------
