GPU time: 0.0162695
Max color: 22
--------------------------
GPU time: 0.0164431
Max color: 22
--------------------------
GPU time: 0.0162895
Max color: 22
--------------------------
GPU time: 0.0164171
Max color: 22
--------------------------
GPU time: 0.0165221
Max color: 22
--------------------------
