GPU time: 8.51839
Max color: 2300
--------------------------
GPU time: 8.5472
Max color: 2300
--------------------------
GPU time: 8.47134
Max color: 2300
--------------------------
GPU time: 8.49381
Max color: 2300
--------------------------
GPU time: 8.51082
Max color: 2300
--------------------------
