GPU time: 5.85338
Max color: 1752
--------------------------
GPU time: 5.85333
Max color: 1752
--------------------------
GPU time: 5.85271
Max color: 1752
--------------------------
GPU time: 5.69799
Max color: 1752
--------------------------
GPU time: 5.83086
Max color: 1752
--------------------------
