GPU time: 8.41817
Max color: 2300
--------------------------
GPU time: 8.50807
Max color: 2300
--------------------------
GPU time: 8.42654
Max color: 2300
--------------------------
GPU time: 8.41057
Max color: 2300
--------------------------
GPU time: 8.40031
Max color: 2300
--------------------------
