GPU time: 0.0733992
Max color: 123
--------------------------
GPU time: 0.101645
Max color: 123
--------------------------
GPU time: 0.062091
Max color: 123
--------------------------
GPU time: 0.060362
Max color: 123
--------------------------
GPU time: 0.0599605
Max color: 123
--------------------------
