GPU time: 2.57628
Max color: 1010
--------------------------
GPU time: 2.57342
Max color: 1011
--------------------------
GPU time: 2.56066
Max color: 1011
--------------------------
GPU time: 2.5343
Max color: 1010
--------------------------
GPU time: 2.5911
Max color: 1014
--------------------------
