GPU time: 3.82097
Max color: 1752
--------------------------
GPU time: 3.73291
Max color: 1752
--------------------------
GPU time: 3.79831
Max color: 1752
--------------------------
GPU time: 3.81055
Max color: 1752
--------------------------
GPU time: 3.79437
Max color: 1752
--------------------------
