GPU time: 5.92319
Max color: 2300
--------------------------
GPU time: 5.85305
Max color: 2300
--------------------------
GPU time: 5.88755
Max color: 2300
--------------------------
GPU time: 5.8684
Max color: 2300
--------------------------
GPU time: 5.87097
Max color: 2300
--------------------------
