GPU time: 48.929
Max color: 2293
--------------------------
GPU time: 48.8863
Max color: 2293
--------------------------
GPU time: 48.8995
Max color: 2293
--------------------------
GPU time: 48.9498
Max color: 2293
--------------------------
GPU time: 48.9108
Max color: 2293
--------------------------
GPU time: 48.8811
Max color: 2293
--------------------------
GPU time: 48.8907
Max color: 2293
--------------------------
GPU time: 48.8948
Max color: 2293
--------------------------
GPU time: 48.8733
Max color: 2293
--------------------------
GPU time: 48.919
Max color: 2293
--------------------------
