GPU time: 0.881805
Max color: 565
--------------------------
GPU time: 0.88999
Max color: 565
--------------------------
GPU time: 0.89054
Max color: 565
--------------------------
GPU time: 0.878723
Max color: 565
--------------------------
GPU time: 0.875826
Max color: 565
--------------------------
GPU time: 0.884864
Max color: 565
--------------------------
GPU time: 0.871701
Max color: 565
--------------------------
GPU time: 0.873521
Max color: 565
--------------------------
GPU time: 0.871238
Max color: 565
--------------------------
GPU time: 0.906964
Max color: 565
--------------------------
GPU time: 0.885247
Max color: 565
--------------------------
GPU time: 0.881391
Max color: 565
--------------------------
GPU time: 0.878653
Max color: 565
--------------------------
GPU time: 0.880488
Max color: 565
--------------------------
GPU time: 0.874787
Max color: 565
--------------------------
