GPU time: 0.0138964
Max color: 21
--------------------------
GPU time: 0.0133961
Max color: 18
--------------------------
GPU time: 0.0133726
Max color: 19
--------------------------
GPU time: 0.0134762
Max color: 18
--------------------------
GPU time: 0.0136559
Max color: 20
--------------------------
