GPU time: 0.451968
Max color: 591
--------------------------
GPU time: 0.402045
Max color: 570
--------------------------
GPU time: 0.439952
Max color: 567
--------------------------
GPU time: 0.437543
Max color: 570
--------------------------
GPU time: 0.446906
Max color: 571
--------------------------
