GPU time: 0.179423
Max color: 289
--------------------------
GPU time: 0.19442
Max color: 293
--------------------------
GPU time: 0.190955
Max color: 289
--------------------------
GPU time: 0.181115
Max color: 294
--------------------------
GPU time: 0.205954
Max color: 288
--------------------------
