GPU time: 16.5375
Max color: 1822
--------------------------
GPU time: 16.2919
Max color: 1822
--------------------------
GPU time: 16.2691
Max color: 1822
--------------------------
GPU time: 16.2176
Max color: 1822
--------------------------
GPU time: 16.262
Max color: 1822
--------------------------
GPU time: 16.5155
Max color: 1822
--------------------------
GPU time: 16.4688
Max color: 1822
--------------------------
GPU time: 16.2139
Max color: 1822
--------------------------
GPU time: 16.1952
Max color: 1822
--------------------------
GPU time: 16.203
Max color: 1822
--------------------------
