GPU time: 0.605115
Max color: 1062
--------------------------
GPU time: 0.606214
Max color: 1062
--------------------------
GPU time: 0.594038
Max color: 1062
--------------------------
GPU time: 0.599579
Max color: 1062
--------------------------
GPU time: 0.589989
Max color: 1062
--------------------------
GPU time: 0.660343
Max color: 1062
--------------------------
GPU time: 0.646768
Max color: 1062
--------------------------
GPU time: 0.570919
Max color: 1062
--------------------------
GPU time: 0.605919
Max color: 1062
--------------------------
GPU time: 0.618105
Max color: 1062
--------------------------
