GPU time: 0.176185
Max color: 281
--------------------------
GPU time: 0.167068
Max color: 281
--------------------------
GPU time: 0.170442
Max color: 281
--------------------------
GPU time: 0.198252
Max color: 281
--------------------------
GPU time: 0.186034
Max color: 281
--------------------------
GPU time: 0.176986
Max color: 281
--------------------------
GPU time: 0.159288
Max color: 281
--------------------------
GPU time: 0.163145
Max color: 281
--------------------------
GPU time: 0.209301
Max color: 281
--------------------------
GPU time: 0.207564
Max color: 281
--------------------------
GPU time: 0.187117
Max color: 281
--------------------------
GPU time: 0.171815
Max color: 281
--------------------------
GPU time: 0.169988
Max color: 281
--------------------------
GPU time: 0.201274
Max color: 281
--------------------------
GPU time: 0.161134
Max color: 281
--------------------------
