GPU time: 0.0129781
Max color: 18
--------------------------
GPU time: 0.0128103
Max color: 18
--------------------------
GPU time: 0.0127376
Max color: 18
--------------------------
GPU time: 0.0123262
Max color: 17
--------------------------
GPU time: 0.0132191
Max color: 19
--------------------------
