GPU time: 0.0803049
Max color: 112
--------------------------
GPU time: 0.0812952
Max color: 112
--------------------------
GPU time: 0.0748252
Max color: 112
--------------------------
GPU time: 0.075378
Max color: 112
--------------------------
GPU time: 0.0644972
Max color: 112
--------------------------
GPU time: 0.0781684
Max color: 112
--------------------------
GPU time: 0.0551878
Max color: 112
--------------------------
GPU time: 0.0611711
Max color: 112
--------------------------
GPU time: 0.0773385
Max color: 112
--------------------------
GPU time: 0.0575135
Max color: 112
--------------------------
GPU time: 0.0668122
Max color: 112
--------------------------
GPU time: 0.0771517
Max color: 112
--------------------------
GPU time: 0.0571957
Max color: 112
--------------------------
GPU time: 0.0605178
Max color: 112
--------------------------
GPU time: 0.0831731
Max color: 112
--------------------------
