GPU time: 0.0134237
Max color: 17
--------------------------
GPU time: 0.0136988
Max color: 19
--------------------------
GPU time: 0.0136753
Max color: 19
--------------------------
GPU time: 0.0133935
Max color: 17
--------------------------
GPU time: 0.0135508
Max color: 18
--------------------------
