GPU time: 0.0170244
Max color: 12
--------------------------
GPU time: 0.0173416
Max color: 13
--------------------------
GPU time: 0.0172732
Max color: 13
--------------------------
GPU time: 0.0173362
Max color: 13
--------------------------
GPU time: 0.017455
Max color: 14
--------------------------
