GPU time: 0.22385
Max color: 1062
--------------------------
GPU time: 0.222627
Max color: 1062
--------------------------
GPU time: 0.224214
Max color: 1062
--------------------------
GPU time: 0.240573
Max color: 1062
--------------------------
GPU time: 0.289025
Max color: 1062
--------------------------
GPU time: 0.223794
Max color: 1062
--------------------------
GPU time: 0.224807
Max color: 1062
--------------------------
GPU time: 0.251752
Max color: 1062
--------------------------
GPU time: 0.227535
Max color: 1062
--------------------------
GPU time: 0.270935
Max color: 1062
--------------------------
