GPU time: 0.14651
Max color: 26
--------------------------
GPU time: 0.148797
Max color: 27
--------------------------
GPU time: 0.148843
Max color: 27
--------------------------
GPU time: 0.146898
Max color: 26
--------------------------
GPU time: 0.15159
Max color: 27
--------------------------
