GPU time: 5.96759
Max color: 1152
--------------------------
GPU time: 5.93315
Max color: 1152
--------------------------
GPU time: 5.98329
Max color: 1152
--------------------------
GPU time: 5.93119
Max color: 1152
--------------------------
GPU time: 5.92214
Max color: 1152
--------------------------
GPU time: 5.9269
Max color: 1152
--------------------------
GPU time: 5.93577
Max color: 1152
--------------------------
GPU time: 5.91371
Max color: 1152
--------------------------
GPU time: 5.93721
Max color: 1152
--------------------------
GPU time: 5.94406
Max color: 1152
--------------------------
GPU time: 6.04343
Max color: 1152
--------------------------
GPU time: 6.03643
Max color: 1152
--------------------------
GPU time: 6.05038
Max color: 1152
--------------------------
GPU time: 6.04186
Max color: 1152
--------------------------
GPU time: 6.02931
Max color: 1152
--------------------------
