GPU time: 0.0743452
Max color: 282
--------------------------
GPU time: 0.0694294
Max color: 282
--------------------------
GPU time: 0.0676215
Max color: 282
--------------------------
GPU time: 0.0696351
Max color: 282
--------------------------
GPU time: 0.0661789
Max color: 282
--------------------------
