GPU time: 0.0866926
Max color: 26
--------------------------
GPU time: 0.086671
Max color: 26
--------------------------
GPU time: 0.086493
Max color: 26
--------------------------
GPU time: 0.0862692
Max color: 26
--------------------------
GPU time: 0.0876241
Max color: 27
--------------------------
