GPU time: 9.29356
Max color: 1820
--------------------------
GPU time: 9.26595
Max color: 1820
--------------------------
GPU time: 9.23496
Max color: 1820
--------------------------
GPU time: 9.2679
Max color: 1820
--------------------------
GPU time: 9.27252
Max color: 1820
--------------------------
