GPU time: 3.66915
Max color: 1752
--------------------------
GPU time: 3.74837
Max color: 1752
--------------------------
GPU time: 3.66258
Max color: 1752
--------------------------
GPU time: 3.72385
Max color: 1752
--------------------------
GPU time: 3.74214
Max color: 1752
--------------------------
