GPU time: 0.176245
Max color: 281
--------------------------
GPU time: 0.178609
Max color: 281
--------------------------
GPU time: 0.209839
Max color: 281
--------------------------
GPU time: 0.193777
Max color: 281
--------------------------
GPU time: 0.173705
Max color: 281
--------------------------
GPU time: 0.197303
Max color: 281
--------------------------
GPU time: 0.185431
Max color: 281
--------------------------
GPU time: 0.187432
Max color: 281
--------------------------
GPU time: 0.180216
Max color: 281
--------------------------
GPU time: 0.18089
Max color: 281
--------------------------
GPU time: 0.178627
Max color: 281
--------------------------
GPU time: 0.208067
Max color: 281
--------------------------
GPU time: 0.212937
Max color: 281
--------------------------
GPU time: 0.195361
Max color: 281
--------------------------
GPU time: 0.194287
Max color: 281
--------------------------
