GPU time: 5.35848
Max color: 1747
--------------------------
GPU time: 5.43261
Max color: 1747
--------------------------
GPU time: 5.44891
Max color: 1747
--------------------------
GPU time: 5.45301
Max color: 1747
--------------------------
GPU time: 5.45012
Max color: 1747
--------------------------
GPU time: 5.43944
Max color: 1747
--------------------------
GPU time: 5.45001
Max color: 1747
--------------------------
GPU time: 5.45461
Max color: 1747
--------------------------
GPU time: 5.44403
Max color: 1747
--------------------------
GPU time: 5.45405
Max color: 1747
--------------------------
