GPU time: 0.113814
Max color: 344
--------------------------
GPU time: 0.11362
Max color: 344
--------------------------
GPU time: 0.114355
Max color: 344
--------------------------
GPU time: 0.113254
Max color: 344
--------------------------
GPU time: 0.113253
Max color: 344
--------------------------
