GPU time: 0.245432
Max color: 26
--------------------------
GPU time: 0.244984
Max color: 26
--------------------------
GPU time: 0.243579
Max color: 27
--------------------------
GPU time: 0.246265
Max color: 27
--------------------------
GPU time: 0.243376
Max color: 26
--------------------------
