GPU time: 0.264602
Max color: 260
--------------------------
GPU time: 0.26736
Max color: 257
--------------------------
GPU time: 0.243858
Max color: 259
--------------------------
GPU time: 0.2512
Max color: 261
--------------------------
GPU time: 0.239475
Max color: 258
--------------------------
