GPU time: 0.0181583
Max color: 9
--------------------------
GPU time: 0.0181769
Max color: 9
--------------------------
GPU time: 0.017888
Max color: 9
--------------------------
GPU time: 0.0178428
Max color: 8
--------------------------
GPU time: 0.0182682
Max color: 9
--------------------------
