GPU time: 0.392427
Max color: 44
--------------------------
GPU time: 0.39463
Max color: 46
--------------------------
GPU time: 0.393167
Max color: 45
--------------------------
GPU time: 0.394963
Max color: 46
--------------------------
GPU time: 0.391159
Max color: 44
--------------------------
