GPU time: 0.0142476
Max color: 20
--------------------------
GPU time: 0.0142863
Max color: 20
--------------------------
GPU time: 0.014144
Max color: 19
--------------------------
GPU time: 0.0141316
Max color: 18
--------------------------
GPU time: 0.0143773
Max color: 20
--------------------------
