GPU time: 0.0624311
Max color: 123
--------------------------
GPU time: 0.0817338
Max color: 123
--------------------------
GPU time: 0.0615001
Max color: 123
--------------------------
GPU time: 0.0599825
Max color: 123
--------------------------
GPU time: 0.0599683
Max color: 123
--------------------------
