GPU time: 0.0975677
Max color: 132
--------------------------
GPU time: 0.111008
Max color: 133
--------------------------
GPU time: 0.117205
Max color: 133
--------------------------
GPU time: 0.110463
Max color: 133
--------------------------
GPU time: 0.0811324
Max color: 133
--------------------------
